{
	"JSON": {
		"docs": [
			{
				"similar_doc_id": "PUBSY:JRC31003",
				"similarity": "0.78",
				"source": "pubsy",
				"title": "Information Driven Evaluation of Data hiding Algorithms"
			},
			{
				"similar_doc_id": "PUBSY:JRC42700",
				"similarity": "0.64",
				"source": "pubsy",
				"title": "Privacy Preserving Data Mining, A Data Quality Approach"
			},
			{
				"similar_doc_id": "PUBSY:JRC43963",
				"similarity": "0.63",
				"source": "pubsy",
				"title": "Information Driven Association Rule Hiding Algorithms"
			},
			{
				"similar_doc_id": "PUBSY:JRC42698",
				"similarity": "0.61",
				"source": "pubsy",
				"title": "State of the Art in Privacy Preserving Data Mining"
			},
			{
				"similar_doc_id": "cellar:a5eca931-da8f-4be0-b70c-fc42d93d1902",
				"similarity": "0.58",
				"source": "bookshop",
				"title": "Privacy Preserving Data Mining evaluation methodologies."
			},
			{
				"similar_doc_id": "cellar:97a25636-703b-43ad-97c7-b3be6ea03f0d",
				"similarity": "0.56",
				"source": "bookshop",
				"title": "State of the art in Privacy Preserving Data Mining ."
			},
			{
				"similar_doc_id": "PUBSY:JRC34897",
				"similarity": "0.51",
				"source": "pubsy",
				"title": "Privacy Preserving Data Mining, Concepts, Techniques and Evaluation Methodologies"
			},
			{
				"similar_doc_id": "PUBSY:JRC97108",
				"similarity": "0.48",
				"source": "pubsy",
				"title": "An Agent-based Framework for Informed Consent in the Internet of Things"
			},
			{
				"similar_doc_id": "CORDIS:fp5-56143",
				"similarity": "0.48",
				"source": "cordis",
				"title": ": Bernstein, markov and other related inequalities for multivariate polynomials"
			},
			{
				"similar_doc_id": "PUBSY:JRC65753",
				"similarity": "0.48",
				"source": "pubsy",
				"title": "Performance measures for object detection evaluation"
			}
		]
	},
	"Response Payload": {
		"EDITOR_CONFIG": {
			"text": "{\"docs\":[{\"similar_doc_id\":\"PUBSY:JRC31003\",\"similarity\":\"0.78\",\"source\":\"pubsy\",\"title\":\"Information Driven Evaluation of Data hiding Algorithms\"},{\"similar_doc_id\":\"PUBSY:JRC42700\",\"similarity\":\"0.64\",\"source\":\"pubsy\",\"title\":\"Privacy Preserving Data Mining, A Data Quality Approach\"},{\"similar_doc_id\":\"PUBSY:JRC43963\",\"similarity\":\"0.63\",\"source\":\"pubsy\",\"title\":\"Information Driven Association Rule Hiding Algorithms\"},{\"similar_doc_id\":\"PUBSY:JRC42698\",\"similarity\":\"0.61\",\"source\":\"pubsy\",\"title\":\"State of the Art in Privacy Preserving Data Mining\"},{\"similar_doc_id\":\"cellar:a5eca931-da8f-4be0-b70c-fc42d93d1902\",\"similarity\":\"0.58\",\"source\":\"bookshop\",\"title\":\"Privacy Preserving Data Mining evaluation methodologies.\"},{\"similar_doc_id\":\"cellar:97a25636-703b-43ad-97c7-b3be6ea03f0d\",\"similarity\":\"0.56\",\"source\":\"bookshop\",\"title\":\"State of the art in Privacy Preserving Data Mining .\"},{\"similar_doc_id\":\"PUBSY:JRC34897\",\"similarity\":\"0.51\",\"source\":\"pubsy\",\"title\":\"Privacy Preserving Data Mining, Concepts, Techniques and Evaluation Methodologies\"},{\"similar_doc_id\":\"PUBSY:JRC97108\",\"similarity\":\"0.48\",\"source\":\"pubsy\",\"title\":\"An Agent-based Framework for Informed Consent in the Internet of Things\"},{\"similar_doc_id\":\"CORDIS:fp5-56143\",\"similarity\":\"0.48\",\"source\":\"cordis\",\"title\":\": Bernstein, markov and other related inequalities for multivariate polynomials\"},{\"similar_doc_id\":\"PUBSY:JRC65753\",\"similarity\":\"0.48\",\"source\":\"pubsy\",\"title\":\"Performance measures for object detection evaluation\"}]}\n",
			"mode": "application/json"
		}
	}
}